IS415-GAA - In-class_Ex02
…
  weekday frequency percentage cumulative_perc
1     Wed      4016      14.34           14.34
2     Tue      4008      14.31           28.65
3     Thu      4008      14.31           42.96
4     Sat      4008      14.31           57.27
5     Fri      4002      14.29           71.56
6     Sun      3983      14.22           85.78
7     Mon      3975      14.20          100.00

Show code

origin_df

# A tibble: 28,000 × 12
# Groups:   trj_id [28,000]
   trj_id driving_mode osname  pingtimestamp       rawlat rawlng speed bearing
   <chr>  <chr>        <chr>   <dttm>               <dbl>  <dbl> <dbl>   <int>
 1 70895  car          android 2019-04-08 00:09:40   1.38   104.  6.80      41
 2 21926  car          android 2019-04-08 00:09:49   1.29   104. 10.8       68
 3 47498  car          ios     2019-04-08 00:09:52   1.38   104. 18.3      307
 4 41322  car          android 2019-04-08 00:10:00   1.28   104. 18.7      230
 5 18103  car          android 2019-04-08 00:10:09   1.45   104. 14.1      155
 6 64813  car          ios     2019-04-08 00:10:12   1.31   104. 19.8      109
 7 81518  car          ios     2019-04-08 00:10:16   1.31   104.  8.75     213
 8 25201  car          ios     2019-04-08 00:12:09   1.37   104. 12.6      202
 9 66542  car          android 2019-04-08 00:12:16   1.36   104. 13.9      179
10 82401  car          android 2019-04-08 00:12:21   1.30   104. 12.7      109
# ℹ 27,990 more rows
# ℹ 4 more variables: accuracy <dbl>, weekday <ord>, start_hr <fct>, day <fct>
…
